{
    "name": "acf/colorful-content",
    "title": "Colorful Content",
    "description": "Colorful Content",
    "category": "theme",
    "icon": "admin-comments",
    "apiVersion": 2,
    "keywords": [
        "menu",
        "contact"
    ],
    "acf": {
        "mode": "preview",
        "renderTemplate": "render.php",
        "postTypes": [
            "post",
            "page"
        ]
    },
    "styles": [
        { "name": "default", "label": "Default", "isDefault": true },
        { "name": "home", "label": "Home"}
    ],
    "supports": {
        "anchor": true,
        "color": {
            "text": true
        },
        "alignText": true,
        "spacing": {
            "margin": [
                "top",
                "bottom"
            ],
            "padding": true
        },
        "typography": {
            "lineHeight": true,
            "fontSize": true
        },
        "fullHeight": true
    }
}