<svg xmlns="http://www.w3.org/2000/svg" width="249.743" height="237.672" viewBox="0 0 249.743 237.672">
  <g id="Shape-2" transform="translate(-1309.757 -716.828)">
    <path id="Union_10" data-name="Union 10" d="M1622-2092H1388l25-24h199v-189l24-23v236Z" transform="translate(-77 3046)" fill="#c81927" stroke="rgba(0,0,0,0)" stroke-width="1"/>
  </g>
</svg>
