{
    "name": "acf/webinar-feed-full",
    "title": "Webinar Feed Full",
    "description": "Webinar Feed Full",
    "category": "theme",
    "icon": "admin-comments",
    "apiVersion": 2,
    "keywords": [
        "menu",
        "contact"
    ],
    "acf": {
        "mode": "preview",
        "renderTemplate": "render.php"
    },
    "styles": [
        { "name": "default", "label": "Default", "isDefault": true }
    ],
    "supports": {
        "anchor": true,
        "color": {
            "text": true
        },
        "alignText": true,
        "spacing": {},
        "typography": {},
        "fullHeight": true
    }
}