<svg xmlns="http://www.w3.org/2000/svg" width="39.6" height="69.8" viewBox="0 0 39.6 69.8">
  <path id="Subtraction_1" data-name="Subtraction 1" d="M16692.6,106.544h0l-39.6-34.9,39.6-34.9v69.8Z" transform="translate(-16653 -36.744)" fill="#fff"/>
</svg>
